﻿[
    {
        "_id": "co-01",
        "_parentId": "course",
        "_type": "page",
        "_graphic": {
            "alt": "",
            "src": "course/en/images/00_contentObjects/landing_1.jpg"
        },
        "_classes": "",
        "displayTitle": "Introdução",
        "title": "Introdução",
        "body": "Saiba como gerar ações online, nas lojas e em seu aplicativo móvel.",
        "linkText":"Visualizar",
        "height":"570",
        "durationLabel": "Duração:",
        "duration": "2 min",
        "_pageLevelProgress": {
            "_isEnabled": true
        }
    },
    {
        "_id": "co-02",
        "_parentId": "course",
        "_type": "page",
        "_graphic": {
            "alt": "",
            "src": "course/en/images/00_contentObjects/landing_2.png"
        },
        "_classes": "",
        "displayTitle": "Primeiros passos",
        "title": "Primeiros passos",
        "body": "Quais perguntas você deve se fazer durante o planejamento da campanha?",
        "linkText":"Visualizar",
        "height":"570",
        "durationLabel": "Duração:",
        "duration": "3 min",
        "_pageLevelProgress": {
            "_isEnabled": true
        }
    },
    {
        "_id": "co-03",
        "_parentId": "course",
        "_type": "page",
        "_graphic": {
            "alt": "",
            "src": "course/en/images/00_contentObjects/landing_3.png"
        },
        "_classes": "",
        "displayTitle": "Visão geral dos tipos de compra de anúncio",
        "title": "Visão geral dos tipos de compra de anúncio",
        "body": "Veja como o leilão de anúncios funciona, bem como detalhes da Compra de TRP.",
        "linkText":"Visualizar",
        "height":"570",
        "durationLabel": "Duração:",
        "duration": "5 min",
        "_pageLevelProgress": {
            "_isEnabled": true
        }
    },
    {
        "_id": "co-04",
        "_parentId": "course",
        "_type": "page",
        "_graphic": {
            "alt": "",
            "src": "course/en/images/00_contentObjects/landing_4.png"
        },
        "_classes": "",
        "displayTitle": "Escolher o objetivo certo",
        "title": "Escolher o objetivo certo",
        "body": "Saiba como traduzir seus objetivos de negócios para que eles se alinhem aos objetivos do anúncio do Facebook.",
         "linkText":"Visualizar",
        "height":"570",
        "durationLabel": "Duração:",
        "duration": "2 min",
        "_pageLevelProgress": {
            "_isEnabled": true
        }
    },
    {
        "_id": "co-05",
        "_parentId": "course",
        "_type": "page",
        "_graphic": {
            "alt": "",
            "src": "course/en/images/00_contentObjects/landing_5.png"
        }, 
        "_classes": "",
        "displayTitle": "Direcionar para o público certo",
        "title": "Direcionar para o público certo",
        "body": "Veja o poder e a precisão das nossas soluções de direcionamento.",
        "linkText":"Visualizar",
        "height":"570",
        "durationLabel": "Duração:",
        "duration": "5 min",
        "_pageLevelProgress": {
            "_isEnabled": true
        }
    },
    {
        "_id": "co-06",
        "_parentId": "course",
        "_type": "page",
        "_graphic": {
            "alt": "",
            "src": "course/en/images/00_contentObjects/landing_6.png"
        },
        "_classes": "",
        "displayTitle": "Selecionar posicionamentos, formatos e o criativo",
        "title": "Selecionar posicionamentos, formatos e o criativo",
        "body": "Inspire-se e conheça as melhores práticas para criativos de diversos objetivos.",
                "linkText":"Visualizar",
        "height":"570",
        "durationLabel": "Duração:",
        "duration": "4 min",
        "_pageLevelProgress": {
            "_isEnabled": true
        }
    },
    {
        "_id": "co-07",
        "_parentId": "course",
        "_type": "page",
        "_graphic": {
            "alt": "",
            "src": "course/en/images/00_contentObjects/landing_7.png"
        },
        "_classes": "",
        "displayTitle": "Medir o desempenho da campanha",
        "title": "Medir o desempenho da campanha",
        "body": "Compartilharemos nossas ferramentas de medição e dicas para você escolher a ideal para os seus objetivos de negócios e KPIs.",
                "linkText":"Visualizar",
        "height":"570",
        "durationLabel": "Duração:",
        "duration": "5 min",
        "_pageLevelProgress": {
            "_isEnabled": true
        }
    },
    {
        "_id": "co-08",
        "_parentId": "course",
        "_type": "page",
        "_graphic": {
            "alt": "",
            "src": "course/en/images/00_contentObjects/landing_8.png"
        },
        "_classes": "",
        "displayTitle": "Verificação de Conhecimento",
        "title": "Verificação de Conhecimento",
        "body": "Abordamos diversos tópicos neste curso, por isso faremos uma breve recapitulação.",
                "linkText":"Visualizar",
        "height":"570",
        "durationLabel": "Duração:",
        "duration": "4 min",
        "_pageLevelProgress": {
            "_isEnabled": true
        }
    }
]